സ്മാര്‍ട്ട്ഫോണുകളില്‍ സ്വാതന്ത്ര്യത്തിന്റ പുതുവസന്തവുമായി മോസില്ലയുടെ ഫയര്‍ഫോക്സ് ഓഎസ് 

ഫയര്‍ഫോക്സ് ബ്രൌസറിന്റെ രചയിതാക്കളില്‍ നിന്നും ഇറങ്ങുന്ന, ലിനക്സ് അടിസ്ഥാനമാക്കിയ, മൊബൈല്‍ ഓപ്പറേറ്റിങ്ങ് സിസ്റ്റമാണു് ഫയര്‍ഫോക്സ് ഓഎസ്. സിസ്റ്റം ബൂട്ട് ചെയ്യുമ്പോള്‍ നേരിട്ട് ഫയര്‍ഫോക്സ് ബ്രൌസര്‍ തുടങ്ങുകയും എല്ലാ സോഫ്റ്റ്‌വെയറുകളും വെബ്‌സൈറ്റുകള്‍ പോലെ പ്രവര്‍ത്തിയ്ക്കുകയും ചെയ്യും. ജനപ്രിയ മൊബൈല്‍ ഓപ്പറേറ്റിങ്ങ് സിസ്റ്റങ്ങളായ ആന്‍ഡ്രോയിഡ്, ഐഓഎസ് തുടങ്ങിയവയ്ക്കൊരു ബദലാണു് ഫയര്‍ഫോക്സ് ഓഎസ്.


ഒരു സ്മാര്‍ട്ട്ഫോണില്‍ നിന്നും പ്രതീക്ഷിയ്ക്കുന്നതെല്ലാം  - ഇന്റര്‍നെറ്റ്, ഈമെയില്‍, പാട്ടുകള്‍, മാപ്പുകള്‍, തുടങ്ങി എല്ലാ സൌകര്യങ്ങളും ഫയര്‍ഫോക്സ് ഓഎസ്സിലുണ്ടു്. 

സിടിഇ (ZTE), അല്‍കാടെല്‍, ഗീക്ക്ഫോണ്‍ തുടങ്ങിയവര്‍ ഫയര്‍ഫോക്സ് ഓഎസ് ഫോണുകളിറക്കുന്നുണ്ടു്. 

പാനസോണിക്കുമായി ചേര്‍ന്നു് സ്മാര്‍ട്ട് ടിവികളിലും, ഫോക്സ്കോണുമായി ചേര്‍ന്നു് ടാബ്ലറ്റുകളിലും വയ (VIA) യുമായി ചേര്‍ന്നു് ഡെസ്ക്ടോപ്പുകളിലും ഫയര്‍ഫോക്സ് ഓഎസ് കൊണ്ടുവരാന്‍ മോസില്ല പരിപാടിയിടുന്നു.

എവിടെ വാങ്ങിയ്ക്കാം

ebay.in എന്ന വെബ്‌സൈറ്റില്‍ നിന്നും ഇന്ത്യയില്‍ ആദ്യമായി ഇറങ്ങിയ ഫയര്‍ഫോക്സ് ഓഎസ് മോഡലായ സിടിഇ ഓപ്പണ്‍ (ZTE Open) വാങ്ങിയ്ക്കാവുന്നതാണു്, 6990/- രൂപയാണു് വില.

എന്തുകൊണ്ട് ഫയര്‍ഫോക്സ് ഓഎസ്

ഗൂഗിളിനും പാര്‍ട്ണര്‍ കമ്പനികള്‍ക്കും പുറത്തുള്ളവര്‍ക്കു് ആന്‍ഡ്രോയ്ഡില്‍ സംഭാവന ചെയ്യാന്‍ പ്രയാസമായതിനാല്‍ (മലയാളം ഇന്റര്‍ഫേസിനുള്ള പിന്തുണ ഇതു വരെ ഗൂഗിള്‍ സ്വീകരിച്ചിട്ടില്ല), സ്വതന്ത്ര സോഫ്റ്റ്‌വെയര്‍ കൂട്ടായ്മ വളരെ ആവേശത്തോടെയാണു് ഫയര്‍ഫോക്സ് ഓഎസ്സിനെ സ്വീകരിയ്ക്കുന്നതു്. പുതിയ പതിപ്പുകള്‍ പുറത്തിറങ്ങിയതിനു് ശേഷമേ ഗൂഗിള്‍ ആന്‍ഡ്രോയിഡിന്റെ സോഴ്സ് കോഡ് പുറത്തു് വിടാറുള്ളൂ എന്നാല്‍ ഫയര്‍ഫോക്സ് ഓഎസ്സിലെ ഓരോ ചെറിയ മാറ്റവും ആര്‍ക്കും എപ്പോഴും കാണാവുന്നതാണു്.

സാങ്കേതികം

HTML5 (HTML, CSS, Javascript) ഉപയോഗിച്ചാണു് ഫയര്‍ഫോക്സ് ഓഎസ്സില്‍ അപ്ലിക്കേഷനുകള്‍ ചേര്‍ക്കുന്നതു്. ലിനക്സ് കെര്‍ണലും ഫയര്‍ഫോക്സ് ബ്രൌസറിന്റെ എഞ്ചിനായ ഗെക്കോ എന്നിവ ചേര്‍ന്നാണു് വെബ് സാങ്കേതിക വിദ്യ പ്രവര്‍ത്തിയ്ക്കാനുള്ള സാഹചര്യം ഒരുക്കുന്നതു്. ഓരോ അപ്ലിക്കേഷനും ഓരോ വെബ്സൈറ്റ് പോലെയാണു് പ്രവര്‍ത്തിയ്ക്കുന്നതു്. സാധാരണ വെബ് ബ്രൌസറില്‍ ലഭ്യമായ സൌകര്യങ്ങള്‍ക്കു് പുറമേ ഫോണ്‍ ഹാര്‍ഡ്‌വെയര്‍ (വയര്‍ലസ്സ്, ബ്ലൂടൂത്ത്, ജിപിഎസ്സ് തുടങ്ങിയവ) ജാവാസ്ക്രിപ്റ്റ് വഴി കൈകാര്യം ചെയ്യാനുള്ള സൌകര്യം മോസില്ല വികസിപ്പിച്ചെടുത്തിരിയ്ക്കുന്നു.

സിടിഇ ഓപ്പണില്‍ ഫയര്‍ഫോക്സ് ഓഎസിന്റെ പുതിയ പതിപ്പുകള്‍ ഇന്‍സ്റ്റോള്‍ ചെയ്യാന്‍

സിടിഇ ഓപ്പണില്‍ ഫയര്‍ഫോക്സ് ഓഎസിന്റെ 1.0 പതിപ്പാണു് ഉള്‍പ്പെടുത്തിയിരിയ്ക്കുന്നതു്. 1.3 pre release പതിപ്പിലാണു് കൂടുതല്‍ പരീക്ഷണങ്ങള്‍ നടത്തിയതു്.

ഫയര്‍ഫോക്സ് ഓഎസ്സിന്റെ ഗുണങ്ങള്‍

ആന്‍ഡ്രോയിഡ് 1.5 ല്‍ പ്രവര്‍ത്തിച്ച ആദ്യ ആന്‍ഡ്രോയിഡ് ഫോണായ എച്ച്ടിസി ഡ്രീമുമായാണു് പലപ്പോഴും ഞാന്‍ താരതമ്യം ചെയ്യുന്നതു്.

* ഒരു നല്ല വെബ്‌ബ്രൌസറുണ്ടു്. പല വെബ്‌സൈറ്റുകളുടേയും ഡെസ്ക്ടോപ്പ് പതിപ്പുകള്‍ കുഴപ്പമില്ലാതെ കാണാം.
* Loqui.im ഉപയോഗിച്ചു് whatsapp, Jabber, Google Talk, Facebook chat ഉള്‍പ്പെടെ പല ചാറ്റ് സേവനങ്ങളും ഉപയോഗിയ്ക്കാം.

ഫയര്‍ഫോക്സ് ഓഎസ്സിന്റെ പോരായ്മകള്‍

ഇവയില്‍ പലതും വരുന്ന പതിപ്പുകളില്‍ പരിഹരിയ്ക്കപ്പെടും എന്നാണു് പ്രതീക്ഷ.

* കോപ്പി-പേസ്റ്റ് സംവിധാനമില്ല. വിലാസപുസ്തകത്തിലെ ഒരു നമ്പര്‍ ആര്‍ക്കെങ്കിലും അയച്ചു് കൊടുക്കണമെങ്കില്‍ നമ്പര്‍ ഓര്‍ത്തിരിയ്ക്കുകയോ മറ്റൊരിടത്തു് പകര്‍ത്തുകയോ വേണം.
* ഇമെയില്‍ അപ്ലിക്കേഷന്‍ ഭഗ്യമുണ്ടെങ്കിലേ ശരിയായി പ്രവര്‍ത്തിയ്ക്കൂ. ജിമെയില്‍ അക്കൌണ്ടില്‍ പുതിയ മെയിലുകളുടെ വിഷയം കാണാമെങ്കിലും വായിയ്ക്കാന്‍ കഴിയുന്നില്ല.
* പല വെബ്‌സൈറ്റുകളും ഇടക്കിടെ ക്രാഷാകാറുണ്ടു്.


സിടിഇ ഓപ്പണിന്റെ പോരായ്മകള്‍

വളരെ കുറഞ്ഞ സ്പെസിഫിക്കേഷനായതിനാല്‍ പല പോരായ്മകളും ശ്രദ്ധയില്‍ പെട്ടു. 

* ഒരു ഈമെയില്‍ എഴുതിക്കൊണ്ടിരിയ്ക്കുമ്പോള്‍ എസ്എംഎസ്സോ വിളിയോ വന്നാല്‍ എഴുതിയതെല്ലാം നഷ്ടപ്പെടും.
* ബാറ്ററി ലൈഫ് ഏതാണ്ടു് ഒരു ദിവസം കഷ്ടിച്ചു് നില്‍ക്കും.

സിടിഇ ഓപ്പണ്‍ ഒരു സാധാരണ ഫോണായി കുഴപ്പമില്ലാതെ ഉപയോഗിയ്ക്കാമെങ്കിലും ഒരു സ്മാര്‍ട്ട്ഫോണില്‍ നിന്നും പ്രതീക്ഷിയ്ക്കുന്ന പലതും കുറവാണു്.

References
Mozilla partners with Panasonic to bring Firefox OS to the TV, details progress on tablet and desktop versions 
http://thenextweb.com/insider/2014/01/06/mozilla-partners-panasonic-bring-firefox-os-tv-details-work-tablet-desktop-versions/#!rD4Q4
